<?xml version="1.0" encoding="UTF-8"?>
<svg width="38px" height="38px" viewBox="0 0 38 38" version="1.1" xmlns="http://www.w3.org/2000/svg" xmlns:xlink="http://www.w3.org/1999/xlink">
    <!-- Generator: Sketch 48.2 (47327) - http://www.bohemiancoding.com/sketch -->
    <title>FB icon</title>
    <desc>Created with Sketch.</desc>
    <defs></defs>
    <g id="footer" stroke="none" stroke-width="1" fill="none" fill-rule="evenodd" transform="translate(-683.000000, -101.000000)">
        <g id="FB-icon">
            <g transform="translate(683.000000, 101.000000)">
                <rect id="Rectangle-33" fill="#4867AA" x="0" y="0" width="38" height="38" rx="6"></rect>
                <path d="M29.6742626,38 L29.6742626,23.3518526 L34.8233795,23.3518526 L35.5943867,17.6432097 L29.6742626,17.6432097 L29.6742626,13.9986018 C29.6742626,12.345818 30.1549125,11.2195003 32.6370146,11.2195003 L35.8028169,11.2181793 L35.8028169,6.11232329 C35.2553034,6.04275402 33.3760502,5.88732394 31.1896853,5.88732394 C26.6252796,5.88732394 23.5003641,8.54768806 23.5003641,13.4332414 L23.5003641,17.6432097 L18.3380282,17.6432097 L18.3380282,23.3518526 L23.5003641,23.3518526 L23.5003641,38 L29.6742626,38 Z" id="f" fill="#FFFFFF" fill-rule="nonzero"></path>
            </g>
        </g>
    </g>
</svg>